hablar
…
In hablar the find_* functions speeds up
your search for the problem. To find duplicated rows you simply
df %>% find_duplicates(). You can also find duplicates
in in specific columns, which can be useful before joins.

# Create df with duplicates
df <- mtcars %>% 
  bind_rows(mtcars %>% slice(1, 5, 9))

# Return rows with duplicates in cyl and am
df %>% 
  find_duplicates(cyl, am)
#> # A tibble: 35 × 11
#>     mpg   cyl  disp    hp  drat    wt  qsec    vs    am  gear  carb
#>   <dbl> <dbl> <dbl> <dbl> <dbl> <dbl> <dbl> <dbl> <dbl> <dbl> <dbl>
#> 1  21       6   160   110  3.9   2.62  16.5     0     1     4     4
#> 2  21       6   160   110  3.9   2.88  17.0     0     1     4     4
#> 3  22.8     4   108    93  3.85  2.32  18.6     1     1     4     1
#> 4  21.4     6   258   110  3.08  3.22  19.4     1     0     3     1
#> # … with 31 more rows
#> # ℹ Use `print(n = ...)` to see more rows

There are also find functions for other cases. For example
find_na() returns rows with missing values.

starwars %>% 
  find_na(height)
#> # A tibble: 6 × 14
#>   name         height  mass hair_…¹ skin_…² eye_c…³ birth…⁴ sex   gender homew…⁵
#>   <chr>         <int> <dbl> <chr>   <chr>   <chr>     <dbl> <chr> <chr>  <chr>  
#> 1 Arvel Crynyd     NA    NA brown   fair    brown        NA male  mascu… <NA>   
#> 2 Finn             NA    NA black   dark    dark         NA male  mascu… <NA>   
#> 3 Rey              NA    NA brown   light   hazel        NA fema… femin… <NA>   
#> 4 Poe Dameron      NA    NA brown   light   brown        NA male  mascu… <NA>   
#> # … with 2 more rows, 4 more variables: species <chr>, films <list>,
#> #   vehicles <list>, starships <list>, and abbreviated variable names
#> #   ¹​hair_color, ²​skin_color, ³​eye_color, ⁴​birth_year, ⁵​homeworld
#> # ℹ Use `print(n = ...)` to see more rows, and `colnames()` to see all variable names
…
…apply the solution

Let’s say that we have found a problem is caused by missing values in
the column height and you want to replace all missing
values with the integer 100. hablar comes with an
additional ways of doing if-or-else.

starwars %>% 
  find_na(height) %>% 
  mutate(height = if_na(height, 100L))
#> # A tibble: 6 × 14
#>   name         height  mass hair_…¹ skin_…² eye_c…³ birth…⁴ sex   gender homew…⁵
#>   <chr>         <int> <dbl> <chr>   <chr>   <chr>     <dbl> <chr> <chr>  <chr>  
#> 1 Arvel Crynyd    100    NA brown   fair    brown        NA male  mascu… <NA>   
#> 2 Finn            100    NA black   dark    dark         NA male  mascu… <NA>   
#> 3 Rey             100    NA brown   light   hazel        NA fema… femin… <NA>   
#> 4 Poe Dameron     100    NA brown   light   brown        NA male  mascu… <NA>   
#> # … with 2 more rows, 4 more variables: species <chr>, films <list>,
#> #   vehicles <list>, starships <list>, and abbreviated variable names
#> #   ¹​hair_color, ²​skin_color, ³​eye_color, ⁴​birth_year, ⁵​homeworld
#> # ℹ Use `print(n = ...)` to see more rows, and `colnames()` to see all variable names
…
if_nan() and nan_if()

which works in the same way as the examples above.

Introducing a third way to if or else

The generic function if_else_() provides the same
rigidity as if_else() in dplyr but ads some
flexibility. In dplyr you need to specify which type
NA should have. In if_else_() you can
write:

starwars %>% 
  mutate(skin_color = if_else_(hair_color == "brown", NA, hair_color))
#> # A tibble: 87 × 14
#>   name         height  mass hair_…¹ skin_…² eye_c…³ birth…⁴ sex   gender homew…⁵
#>   <chr>         <int> <dbl> <chr>   <chr>   <chr>     <dbl> <chr> <chr>  <chr>  
#> 1 Luke Skywal…    172    77 blond   blond   blue       19   male  mascu… Tatooi…
#> 2 C-3PO           167    75 <NA>    <NA>    yellow    112   none  mascu… Tatooi…
#> 3 R2-D2            96    32 <NA>    <NA>    red        33   none  mascu… Naboo  
#> 4 Darth Vader     202   136 none    none    yellow     41.9 male  mascu… Tatooi…
#> # … with 83 more rows, 4 more variables: species <chr>, films <list>,
#> #   vehicles <list>, starships <list>, and abbreviated variable names
#> #   ¹​hair_color, ²​skin_color, ³​eye_color, ⁴​birth_year, ⁵​homeworld
#> # ℹ Use `print(n = ...)` to see more rows, and `colnames()` to see all variable names
…
